<?xml version="1.0" standalone="no"?>
<!DOCTYPE svg PUBLIC "-//W3C//DTD SVG 20010904//EN"
 "http://www.w3.org/TR/2001/REC-SVG-20010904/DTD/svg10.dtd">
<svg version="1.0" xmlns="http://www.w3.org/2000/svg"
 width="570.000000pt" height="570.000000pt" viewBox="0 0 570.000000 570.000000"
 preserveAspectRatio="xMidYMid meet">
<metadata>
Created by potrace 1.11, written by Peter Selinger 2001-2013
</metadata>
<g transform="translate(0.000000,570.000000) scale(0.100000,-0.100000)"
fill="#000000" stroke="none">
<path d="M2795 5671 c-72 -32 -102 -133 -59 -198 70 -108 238 -65 248 64 6 74
-46 134 -121 139 -26 2 -57 0 -68 -5z"/>
<path d="M2800 5083 c-110 -33 -181 -116 -186 -221 -3 -72 20 -135 68 -182
136 -133 361 -64 400 124 29 137 -74 269 -218 279 -27 2 -56 2 -64 0z"/>
<path d="M442 4309 c-139 -69 -59 -283 93 -249 88 20 132 121 85 197 -40 66
-109 86 -178 52z"/>
<path d="M5134 4312 c-39 -18 -74 -78 -74 -124 0 -49 48 -114 92 -124 72 -17
124 2 158 59 70 114 -54 247 -176 189z"/>
<path d="M2770 4277 c-66 -18 -116 -53 -160 -108 -49 -63 -64 -108 -63 -194 3
-327 453 -417 586 -116 28 63 30 162 5 228 -54 145 -222 232 -368 190z"/>
<path d="M1024 4067 c-125 -48 -186 -193 -134 -315 39 -91 121 -145 220 -144
67 0 118 21 165 67 96 97 94 241 -5 337 -67 65 -164 86 -246 55z"/>
<path d="M4495 4061 c-183 -84 -189 -337 -11 -428 134 -68 287 -2 333 145 14
45 15 62 5 108 -14 67 -57 128 -113 162 -56 34 -157 40 -214 13z"/>
<path d="M1794 3710 c-53 -12 -124 -53 -161 -93 -55 -62 -77 -120 -77 -207 0
-88 22 -145 79 -208 87 -97 240 -126 357 -69 111 55 171 151 172 277 0 63 -4
84 -28 133 -62 125 -207 197 -342 167z"/>
<path d="M3748 3700 c-264 -82 -290 -445 -40 -567 118 -58 270 -28 357 69 210
232 -18 592 -317 498z"/>
<path d="M2724 3335 c-194 -53 -337 -204 -377 -397 -65 -313 180 -609 503
-610 234 0 435 156 496 384 17 65 15 200 -3 262 -50 171 -189 309 -358 359
-65 19 -197 20 -261 2z"/>
<path d="M1805 2573 c-147 -27 -255 -163 -250 -315 9 -256 311 -390 503 -222
211 184 95 522 -184 538 -27 1 -58 1 -69 -1z"/>
<path d="M3782 2568 c-68 -11 -141 -57 -182 -113 -51 -69 -64 -108 -64 -189 0
-120 65 -224 174 -278 69 -34 197 -32 265 4 112 58 170 154 169 278 -1 195
-168 333 -362 298z"/>
<path d="M1038 2060 c-63 -19 -118 -70 -149 -138 -68 -153 58 -335 227 -326
68 3 114 24 162 74 92 93 89 243 -5 332 -60 57 -158 81 -235 58z"/>
<path d="M4504 2054 c-82 -29 -146 -118 -150 -208 -7 -162 141 -282 298 -241
172 44 234 263 110 391 -68 70 -164 91 -258 58z"/>
<path d="M2815 2002 c-96 -18 -165 -58 -212 -124 -112 -159 -58 -375 116 -460
36 -18 63 -23 126 -22 44 0 87 2 95 5 82 27 152 90 188 169 69 150 -2 339
-152 405 -51 22 -123 35 -161 27z"/>
<path d="M444 1606 c-38 -17 -74 -73 -74 -115 0 -109 105 -173 199 -123 19 10
43 34 53 53 62 115 -56 238 -178 185z"/>
<path d="M5136 1609 c-97 -57 -100 -190 -5 -241 117 -62 245 64 184 182 -30
57 -126 89 -179 59z"/>
<path d="M2803 1060 c-154 -35 -235 -200 -164 -338 90 -174 332 -174 424 1 30
57 30 155 0 213 -50 94 -160 147 -260 124z"/>
<path d="M2820 264 c-59 -20 -87 -52 -101 -113 -6 -28 -4 -46 11 -76 24 -50
65 -75 120 -75 133 0 185 172 75 244 -27 17 -81 28 -105 20z"/>
</g>
</svg>
